%YAML 1.1
%TAG !u! tag:unity3d.com,2011:
--- !u!114 &11400000
MonoBehaviour:
  m_ObjectHideFlags: 0
  m_CorrespondingSourceObject: {fileID: 0}
  m_PrefabInstance: {fileID: 0}
  m_PrefabAsset: {fileID: 0}
  m_GameObject: {fileID: 0}
  m_Enabled: 1
  m_EditorHideFlags: 0
  m_Script: {fileID: 11500000, guid: 78b2425a2284af743826c689403a4924, type: 3}
  m_Name: Check Layer Visibility
  m_EditorClassIdentifier: 
  m_functionInfo: "// Made with Amplify Shader Editor\n// Available at the Unity Asset
    Store - http://u3d.as/y3X \n/*ASEBEGIN\nVersion=17101\n844;73;797;968;119.7724;699.1118;1;True;False\nNode;AmplifyShaderEditor.SimpleMultiplyOpNode;31;686.7938,-400.2373;Inherit;False;2;2;0;INT;0;False;1;COLOR;0,0,0,0;False;1;COLOR;0\nNode;AmplifyShaderEditor.SamplerNode;29;344.1142,-306.2751;Inherit;True;Property;_Splitter;Splitter;4;0;Create;True;0;0;False;0;None;None;True;0;False;white;Auto;False;Object;-1;Auto;Texture2D;6;0;SAMPLER2D;;False;1;FLOAT2;0,0;False;2;FLOAT;0;False;3;FLOAT2;0,0;False;4;FLOAT2;0,0;False;5;FLOAT;1;False;5;COLOR;0;FLOAT;1;FLOAT;2;FLOAT;3;FLOAT;4\nNode;AmplifyShaderEditor.FunctionInput;5;131.2906,-296.0984;Inherit;True;Texture;9;1;False;1;0;SAMPLER2D;0;False;1;SAMPLER2D;0\nNode;AmplifyShaderEditor.FunctionInput;4;488.9026,-391.476;Inherit;False;layerOn;0;0;True;1;0;INT;0;False;1;INT;0\nNode;AmplifyShaderEditor.FunctionOutput;8;922.3324,-380.9536;Inherit;False;True;Texture
    to Add;0;False;1;0;COLOR;0,0,0,0;False;1;COLOR;0\nWireConnection;31;0;4;0\nWireConnection;31;1;29;0\nWireConnection;29;0;5;0\nWireConnection;8;0;31;0\nASEEND*/\n//CHKSM=3E1C5C56050BCDFE40CDDB0048485220C65FAD7C"
  m_functionName: 
  m_description: Checks layerOn to determine whether to output Texture or nothing.
  m_additionalIncludes:
    m_additionalIncludes: []
    m_outsideIncludes: []
  m_additionalPragmas:
    m_additionalPragmas: []
    m_outsidePragmas: []
  m_additionalDirectives:
    m_validData: 0
    m_isDirty: 1
    m_moduleName: ' Additional Directives'
    m_independentModule: 1
    m_additionalDirectives: []
    m_shaderFunctionDirectives: []
    m_nativeDirectives: []
    m_nativeDirectivesIndex: -1
    m_nativeDirectivesFoldout: 0
    m_directivesSaveItems: []
  m_nodeCategory: 3
  m_customNodeCategory: 
  m_previewPosition: 0
  m_hidden: 0
